src/tb_encoder.vcd
$date
	Thu Jun 25 10:22:22 2026
$end
$version
	Icarus Verilog
$end
$timescale
	1ps
$end
$scope module tb_encoder_1024_10 $end
$var wire 1 ! valid $end
$var wire 10 " out_code [9:0] $end
$var reg 1024 # in_data [1023:0] $end
$var integer 32 $ errors [31:0] $end
$var integer 32 % i [31:0] $end
$scope module dut $end
$var wire 1024 & in_data [1023:0] $end
$var reg 10 ' out_code [9:0] $end
$var reg 1 ! valid $end
$var integer 32 ( i [31:0] $end
$upscope $end
$upscope $end
$enddefinitions $end
$comment Show the parameter values. $end
$dumpall
$end
#0
$dumpvars
b10000000000 (
b0 '
b0 &
bx %
b0 $
b0 #
b0 "
0!
$end
#20000
1!
b10000000000 (
b1 #
b1 &
b0 %
#21000
b1 "
b1 '
b10000000000 (
1!
b10 #
b10 &
b1 %
#22000
b10000000000 (
1!
b10 "
b10 '
b100 #
b100 &
b10 %
#23000
b10000000000 (
1!
b11 "
b11 '
b1000 #
b1000 &
b11 %
#24000
b10000000000 (
1!
b100 "
b100 '
b10000 #
b10000 &
b100 %
#25000
b10000000000 (
1!
b101 "
b101 '
b100000 #
b100000 &
b101 %
#26000
b10000000000 (
1!
b110 "
b110 '
b1000000 #
b1000000 &
b110 %
#27000
b10000000000 (
1!
b111 "
b111 '
b10000000 #
b10000000 &
b111 %
#28000
b10000000000 (
1!
b1000 "
b1000 '
b100000000 #
b100000000 &
b1000 %
#29000
b10000000000 (
1!
b1001 "
b1001 '
b1000000000 #
b1000000000 &
b1001 %
#30000
b10000000000 (
1!
b1010 "
b1010 '
b10000000000 #
b10000000000 &
b1010 %
#31000
b10000000000 (
1!
b1011 "
b1011 '
b100000000000 #
b100000000000 &
b1011 %
#32000
b10000000000 (
1!
b1100 "
b1100 '
b1000000000000 #
b1000000000000 &
b1100 %
#33000
b10000000000 (
1!
b1101 "
b1101 '
b10000000000000 #
b10000000000000 &
b1101 %
#34000
b10000000000 (
1!
b1110 "
b1110 '
b100000000000000 #
b100000000000000 &
b1110 %
#35000
b10000000000 (
1!
b1111 "
b1111 '
b1000000000000000 #
b1000000000000000 &
b1111 %
#36000
b10000000000 (
1!
b10000 "
b10000 '
b10000000000000000 #
b10000000000000000 &
b10000 %
#37000
b10000000000 (
1!
b10001 "
b10001 '
b100000000000000000 #
b100000000000000000 &
b10001 %
#38000
b10000000000 (
1!
b10010 "
b10010 '
b1000000000000000000 #
b1000000000000000000 &
b10010 %
#39000
b10000000000 (
1!
b10011 "
b10011 '
b10000000000000000000 #
b10000000000000000000 &
b10011 %
#40000
b10000000000 (
1!
b10100 "
b10100 '
b100000000000000000000 #
b100000000000000000000 &
b10100 %
#41000
b10000000000 (
1!
b10101 "
b10101 '
b1000000000000000000000 #
b1000000000000000000000 &
b10101 %
#42000
b10000000000 (
1!
b10110 "
b10110 '
b10000000000000000000000 #
b10000000000000000000000 &
b10110 %
#43000
b10000000000 (
1!
b10111 "
b10111 '
b100000000000000000000000 #
b100000000000000000000000 &
b10111 %
#44000
b10000000000 (
1!
b11000 "
b11000 '
b1000000000000000000000000 #
b1000000000000000000000000 &
b11000 %
#45000
b10000000000 (
1!
b11001 "
b11001 '
b10000000000000000000000000 #
b10000000000000000000000000 &
b11001 %
#46000
b10000000000 (
1!
b11010 "
b11010 '
b100000000000000000000000000 #
b100000000000000000000000000 &
b11010 %
#47000
b10000000000 (
1!
b11011 "
b11011 '
b1000000000000000000000000000 #
b1000000000000000000000000000 &
b11011 %
#48000
b10000000000 (
1!
b11100 "
b11100 '
b10000000000000000000000000000 #
b10000000000000000000000000000 &
b11100 %
#49000
b10000000000 (
1!
b11101 "
b11101 '
b100000000000000000000000000000 #
b100000000000000000000000000000 &
b11101 %
#50000
b10000000000 (
1!
b11110 "
b11110 '
b1000000000000000000000000000000 #
b1000000000000000000000000000000 &
b11110 %
#51000
b10000000000 (
1!
b11111 "
b11111 '
b10000000000000000000000000000000 #
b10000000000000000000000000000000 &
b11111 %
#52000
b10000000000 (
1!
b100000 "
b100000 '
b100000000000000000000000000000000 #
b100000000000000000000000000000000 &
b100000 %
#53000
b10000000000 (
1!
b100001 "
b100001 '
b1000000000000000000000000000000000 #
b1000000000000000000000000000000000 &
b100001 %
#54000
b10000000000 (
1!
b100010 "
b100010 '
b10000000000000000000000000000000000 #
b10000000000000000000000000000000000 &
b100010 %
#55000
b10000000000 (
1!
b100011 "
b100011 '
b100000000000000000000000000000000000 #
b100000000000000000000000000000000000 &
b100011 %
#56000
b10000000000 (
1!
b100100 "
b100100 '
b1000000000000000000000000000000000000 #
b1000000000000000000000000000000000000 &
b100100 %
#57000
b10000000000 (
1!
b100101 "
b100101 '
b10000000000000000000000000000000000000 #
b10000000000000000000000000000000000000 &
b100101 %
#58000
b10000000000 (
1!
b100110 "
b100110 '
b100000000000000000000000000000000000000 #
b100000000000000000000000000000000000000 &
b100110 %
#59000
b10000000000 (
1!
b100111 "
b100111 '
b1000000000000000000000000000000000000000 #
b1000000000000000000000000000000000000000 &
b100111 %
#60000
b10000000000 (
1!
b101000 "
b101000 '
b10000000000000000000000000000000000000000 #
b10000000000000000000000000000000000000000 &
b101000 %
#61000
b10000000000 (
1!
b101001 "
b101001 '
b100000000000000000000000000000000000000000 #
b100000000000000000000000000000000000000000 &
b101001 %
#62000
b10000000000 (
1!
b101010 "
b101010 '
b1000000000000000000000000000000000000000000 #
b1000000000000000000000000000000000000000000 &
b101010 %
#63000
b10000000000 (
1!
b101011 "
b101011 '
b10000000000000000000000000000000000000000000 #
b10000000000000000000000000000000000000000000 &
b101011 %
#64000
b10000000000 (
1!
b101100 "
b101100 '
b100000000000000000000000000000000000000000000 #
b100000000000000000000000000000000000000000000 &
b101100 %
#65000
b10000000000 (
1!
b101101 "
b101101 '
b1000000000000000000000000000000000000000000000 #
b1000000000000000000000000000000000000000000000 &
b101101 %
#66000
b10000000000 (
1!
b101110 "
b101110 '
b10000000000000000000000000000000000000000000000 #
b10000000000000000000000000000000000000000000000 &
b101110 %
#67000
b10000000000 (
1!
b101111 "
b101111 '
b100000000000000000000000000000000000000000000000 #
b100000000000000000000000000000000000000000000000 &
b101111 %
#68000
b10000000000 (
1!
b110000 "
b110000 '
b1000000000000000000000000000000000000000000000000 #
b1000000000000000000000000000000000000000000000000 &
b110000 %
#69000
b10000000000 (
1!
b110001 "
b110001 '
b10000000000000000000000000000000000000000000000000 #
b10000000000000000000000000000000000000000000000000 &
b110001 %
#70000
b10000000000 (
1!
b110010 "
b110010 '
b100000000000000000000000000000000000000000000000000 #
b100000000000000000000000000000000000000000000000000 &
b110010 %
#71000
b10000000000 (
1!
b110011 "
b110011 '
b1000000000000000000000000000000000000000000000000000 #
b1000000000000000000000000000000000000000000000000000 &
b110011 %
#72000
b10000000000 (
1!
b110100 "
b110100 '
b10000000000000000000000000000000000000000000000000000 #
b10000000000000000000000000000000000000000000000000000 &
b110100 %
#73000
b10000000000 (
1!
b110101 "
b110101 '
b100000000000000000000000000000000000000000000000000000 #
b100000000000000000000000000000000000000000000000000000 &
b110101 %
#74000
b10000000000 (
1!
b110110 "
b110110 '
b1000000000000000000000000000000000000000000000000000000 #
b1000000000000000000000000000000000000000000000000000000 &
b110110 %
#75000
b10000000000 (
1!
b110111 "
b110111 '
b10000000000000000000000000000000000000000000000000000000 #
b10000000000000000000000000000000000000000000000000000000 &
b110111 %
#76000
b10000000000 (
1!
b111000 "
b111000 '
b100000000000000000000000000000000000000000000000000000000 #
b100000000000000000000000000000000000000000000000000000000 &
b111000 %
#77000
b10000000000 (
1!
b111001 "
b111001 '
b1000000000000000000000000000000000000000000000000000000000 #
b1000000000000000000000000000000000000000000000000000000000 &
b111001 %
#78000
b10000000000 (
1!
b111010 "
b111010 '
b10000000000000000000000000000000000000000000000000000000000 #
b10000000000000000000000000000000000000000000000000000000000 &
b111010 %
#79000
b10000000000 (
1!
b111011 "
b111011 '
b100000000000000000000000000000000000000000000000000000000000 #
b100000000000000000000000000000000000000000000000000000000000 &
b111011 %
#80000
b10000000000 (
1!
b111100 "
b111100 '
b1000000000000000000000000000000000000000000000000000000000000 #
b1000000000000000000000000000000000000000000000000000000000000 &
b111100 %
#81000
b10000000000 (
1!
b111101 "
b111101 '
b10000000000000000000000000000000000000000000000000000000000000 #
b10000000000000000000000000000000000000000000000000000000000000 &
b111101 %
#82000
b10000000000 (
1!
b111110 "
b111110 '
b100000000000000000000000000000000000000000000000000000000000000 #
b100000000000000000000000000000000000000000000000000000000000000 &
b111110 %
#83000
b10000000000 (
1!
b111111 "
b111111 '
b1000000000000000000000000000000000000000000000000000000000000000 #
b1000000000000000000000000000000000000000000000000000000000000000 &
b111111 %
#84000
b10000000000 (
1!
b1000000 "
b1000000 '
b10000000000000000000000000000000000000000000000000000000000000000 #
b10000000000000000000000000000000000000000000000000000000000000000 &
b1000000 %
#85000
b10000000000 (
1!
b1000001 "
b1000001 '
b100000000000000000000000000000000000000000000000000000000000000000 #
b100000000000000000000000000000000000000000000000000000000000000000 &
b1000001 %
#86000
b10000000000 (
1!
b1000010 "
b1000010 '
b1000000000000000000000000000000000000000000000000000000000000000000 #
b1000000000000000000000000000000000000000000000000000000000000000000 &
b1000010 %
#87000
b10000000000 (
1!
b1000011 "
b1000011 '
b10000000000000000000000000000000000000000000000000000000000000000000 #
b10000000000000000000000000000000000000000000000000000000000000000000 &
b1000011 %
#88000
b10000000000 (
1!
b1000100 "
b1000100 '
b100000000000000000000000000000000000000000000000000000000000000000000 #
b100000000000000000000000000000000000000000000000000000000000000000000 &
b1000100 %
#89000
b10000000000 (
1!
b1000101 "
b1000101 '
b1000000000000000000000000000000000000000000000000000000000000000000000 #
b1000000000000000000000000000000000000000000000000000000000000000000000 &
b1000101 %
#90000
b10000000000 (
1!
b1000110 "
b1000110 '
b10000000000000000000000000000000000000000000000000000000000000000000000 #
b10000000000000000000000000000000000000000000000000000000000000000000000 &
b1000110 %
#91000
b10000000000 (
1!
b1000111 "
b1000111 '
b100000000000000000000000000000000000000000000000000000000000000000000000 #
b100000000000000000000000000000000000000000000000000000000000000000000000 &
b1000111 %
#92000
b10000000000 (
1!
b1001000 "
b1001000 '
b1000000000000000000000000000000000000000000000000000000000000000000000000 #
b1000000000000000000000000000000000000000000000000000000000000000000000000 &
b1001000 %
#93000
b10000000000 (
1!
b1001001 "
b1001001 '
b10000000000000000000000000000000000000000000000000000000000000000000000000 #
b10000000000000000000000000000000000000000000000000000000000000000000000000 &
b1001001 %
#94000
b10000000000 (
1!
b1001010 "
b1001010 '
b100000000000000000000000000000000000000000000000000000000000000000000000000 #
b100000000000000000000000000000000000000000000000000000000000000000000000000 &
b1001010 %
#95000
b10000000000 (
1!
b1001011 "
b1001011 '
b1000000000000000000000000000000000000000000000000000000000000000000000000000 #
b1000000000000000000000000000000000000000000000000000000000000000000000000000 &
b1001011 %
#96000
b10000000000 (
1!
b1001100 "
b1001100 '
b10000000000000000000000000000000000000000000000000000000000000000000000000000 #
b10000000000000000000000000000000000000000000000000000000000000000000000000000 &
b1001100 %
#97000
b10000000000 (
1!
b1001101 "
b1001101 '
b100000000000000000000000000000000000000000000000000000000000000000000000000000 #
b100000000000000000000000000000000000000000000000000000000000000000000000000000 &
b1001101 %
#98000
b10000000000 (
1!
b1001110 "
b1001110 '
b1000000000000000000000000000000000000000000000000000000000000000000000000000000 #
b1000000000000000000000000000000000000000000000000000000000000000000000000000000 &
b1001110 %
#99000
b10000000000 (
1!
b1001111 "
b1001111 '
b10000000000000000000000000000000000000000000000000000000000000000000000000000000 #
b10000000000000000000000000000000000000000000000000000000000000000000000000000000 &
b1001111 %
#100000
b10000000000 (
1!
b1010000 "
b1010000 '
b100000000000000000000000000000000000000000000000000000000000000000000000000000000 #
b100000000000000000000000000000000000000000000000000000000000000000000000000000000 &
b1010000 %
#101000
b10000000000 (
1!
b1010001 "
b1010001 '
b1000000000000000000000000000000000000000000000000000000000000000000000000000000000 #
b1000000000000000000000000000000000000000000000000000000000000000000000000000000000 &
b1010001 %
#102000
b10000000000 (
1!
b1010010 "
b1010010 '
b10000000000000000000000000000000000000000000000000000000000000000000000000000000000 #
b10000000000000000000000000000000000000000000000000000000000000000000000000000000000 &
b1010010 %
#103000
b10000000000 (
1!
b1010011 "
b1010011 '
b100000000000000000000000000000000000000000000000000000000000000000000000000000000000 #
b100000000000000000000000000000000000000000000000000000000000000000000000000000000000 &
b1010011 %
#104000
b10000000000 (
1!
b1010100 "
b1010100 '
b1000000000000000000000000000000000000000000000000000000000000000000000000000000000000 #
b1000000000000000000000000000000000000000000000000000000000000000000000000000000000000 &
b1010100 %
#105000
b10000000000 (
1!
b1010101 "
b1010101 '
b10000000000000000000000000000000000000000000000000000000000000000000000000000000000000 #
b10000000000000000000000000000000000000000000000000000000000000000000000000000000000000 &
b1010101 %
#106000
b10000000000 (
1!
b1010110 "
b1010110 '
b100000000000000000000000000000000000000000000000000000000000000000000000000000000000000 #
b100000000000000000000000000000000000000000000000000000000000000000000000000000000000000 &
b1010110 %
#107000
b10000000000 (
1!
b1010111 "
b1010111 '
b1000000000000000000000000000000000000000000000000000000000000000000000000000000000000000 #
b1000000000000000000000000000000000000000000000000000000000000000000000000000000000000000 &
b1010111 %
#108000
b10000000000 (
1!
b1011000 "
b1011000 '
b10000000000000000000000000000000000000000000000000000000000000000000000000000000000000000 #
b10000000000000000000000000000000000000000000000000000000000000000000000000000000000000000 &
b1011000 %
#109000
b10000000000 (
1!
b1011001 "
b1011001 '
b100000000000000000000000000000000000000000000000000000000000000000000000000000000000000000 #
b100000000000000000000000000000000000000000000000000000000000000000000000000000000000000000 &
b1011001 %
#110000
b10000000000 (
1!
b1011010 "
b1011010 '
b1000000000000000000000000000000000000000000000000000000000000000000000000000000000000000000 #
b1000000000000000000000000000000000000000000000000000000000000000000000000000000000000000000 &
b1011010 %
#111000
b10000000000 (
1!
b1011011 "
b1011011 '
b10000000000000000000000000000000000000000000000000000000000000000000000000000000000000000000 #
b10000000000000000000000000000000000000000000000000000000000000000000000000000000000000000000 &
b1011011 %
#112000
b10000000000 (
1!
b1011100 "
b1011100 '
b100000000000000000000000000000000000000000000000000000000000000000000000000000000000000000000 #
b100000000000000000000000000000000000000000000000000000000000000000000000000000000000000000000 &
b1011100 %
#113000
b10000000000 (
1!
b1011101 "
b1011101 '
b1000000000000000000000000000000000000000000000000000000000000000000000000000000000000000000000 #
b1000000000000000000000000000000000000000000000000000000000000000000000000000000000000000000000 &
b1011101 %
#114000
b10000000000 (
1!
b1011110 "
b1011110 '
b10000000000000000000000000000000000000000000000000000000000000000000000000000000000000000000000 #
b10000000000000000000000000000000000000000000000000000000000000000000000000000000000000000000000 &
b1011110 %
#115000
b10000000000 (
1!
b1011111 "
b1011111 '
b100000000000000000000000000000000000000000000000000000000000000000000000000000000000000000000000 #
b100000000000000000000000000000000000000000000000000000000000000000000000000000000000000000000000 &
b1011111 %
#116000
b10000000000 (
1!
b1100000 "
b1100000 '
b1000000000000000000000000000000000000000000000000000000000000000000000000000000000000000000000000 #
b1000000000000000000000000000000000000000000000000000000000000000000000000000000000000000000000000 &
b1100000 %
#117000
b10000000000 (
1!
b1100001 "
b1100001 '
b10000000000000000000000000000000000000000000000000000000000000000000000000000000000000000000000000 #
b10000000000000000000000000000000000000000000000000000000000000000000000000000000000000000000000000 &
b1100001 %
#118000
b10000000000 (
1!
b1100010 "
b1100010 '
b100000000000000000000000000000000000000000000000000000000000000000000000000000000000000000000000000 #
b100000000000000000000000000000000000000000000000000000000000000000000000000000000000000000000000000 &
b1100010 %
#119000
b10000000000 (
1!
b1100011 "
b1100011 '
b1000000000000000000000000000000000000000000000000000000000000000000000000000000000000000000000000000 #
b1000000000000000000000000000000000000000000000000000000000000000000000000000000000000000000000000000 &
b1100011 %
#120000
b10000000000 (
1!
b1100100 "
b1100100 '
b10000000000000000000000000000000000000000000000000000000000000000000000000000000000000000000000000000 #
b10000000000000000000000000000000000000000000000000000000000000000000000000000000000000000000000000000 &
b1100100 %
#121000
b10000000000 (
1!
b1100101 "
b1100101 '
b100000000000000000000000000000000000000000000000000000000000000000000000000000000000000000000000000000 #
b100000000000000000000000000000000000000000000000000000000000000000000000000000000000000000000000000000 &
b1100101 %
#122000
b10000000000 (
1!
b1100110 "
b1100110 '
b1000000000000000000000000000000000000000000000000000000000000000000000000000000000000000000000000000000 #
b1000000000000000000000000000000000000000000000000000000000000000000000000000000000000000000000000000000 &
b1100110 %
#123000
b10000000000 (
1!
b1100111 "
b1100111 '
b10000000000000000000000000000000000000000000000000000000000000000000000000000000000000000000000000000000 #
b10000000000000000000000000000000000000000000000000000000000000000000000000000000000000000000000000000000 &
b1100111 %
#124000
b10000000000 (
1!
b1101000 "
b1101000 '
b100000000000000000000000000000000000000000000000000000000000000000000000000000000000000000000000000000000 #
b100000000000000000000000000000000000000000000000000000000000000000000000000000000000000000000000000000000 &
b1101000 %
#125000
b10000000000 (
1!
b1101001 "
b1101001 '
b1000000000000000000000000000000000000000000000000000000000000000000000000000000000000000000000000000000000 #
b1000000000000000000000000000000000000000000000000000000000000000000000000000000000000000000000000000000000 &
b1101001 %
#126000
b10000000000 (
1!
b1101010 "
b1101010 '
b10000000000000000000000000000000000000000000000000000000000000000000000000000000000000000000000000000000000 #
b10000000000000000000000000000000000000000000000000000000000000000000000000000000000000000000000000000000000 &
b1101010 %
#127000
b10000000000 (
1!
b1101011 "
b1101011 '
b100000000000000000000000000000000000000000000000000000000000000000000000000000000000000000000000000000000000 #
b100000000000000000000000000000000000000000000000000000000000000000000000000000000000000000000000000000000000 &
b1101011 %
#128000
b10000000000 (
1!
b1101100 "
b1101100 '
b1000000000000000000000000000000000000000000000000000000000000000000000000000000000000000000000000000000000000 #
b1000000000000000000000000000000000000000000000000000000000000000000000000000000000000000000000000000000000000 &
b1101100 %
#129000
b10000000000 (
1!
b1101101 "
b1101101 '
b10000000000000000000000000000000000000000000000000000000000000000000000000000000000000000000000000000000000000 #
b10000000000000000000000000000000000000000000000000000000000000000000000000000000000000000000000000000000000000 &
b1101101 %
#130000
b10000000000 (
1!
b1101110 "
b1101110 '
b100000000000000000000000000000000000000000000000000000000000000000000000000000000000000000000000000000000000000 #
b100000000000000000000000000000000000000000000000000000000000000000000000000000000000000000000000000000000000000 &
b1101110 %
#131000
b10000000000 (
1!
b1101111 "
b1101111 '
b1000000000000000000000000000000000000000000000000000000000000000000000000000000000000000000000000000000000000000 #
b1000000000000000000000000000000000000000000000000000000000000000000000000000000000000000000000000000000000000000 &
b1101111 %
#132000
b10000000000 (
1!
b1110000 "
b1110000 '
b10000000000000000000000000000000000000000000000000000000000000000000000000000000000000000000000000000000000000000 #
b10000000000000000000000000000000000000000000000000000000000000000000000000000000000000000000000000000000000000000 &
b1110000 %
#133000
b10000000000 (
1!
b1110001 "
b1110001 '
b100000000000000000000000000000000000000000000000000000000000000000000000000000000000000000000000000000000000000000 #
b100000000000000000000000000000000000000000000000000000000000000000000000000000000000000000000000000000000000000000 &
b1110001 %
#134000
b10000000000 (
1!
b1110010 "
b1110010 '
b1000000000000000000000000000000000000000000000000000000000000000000000000000000000000000000000000000000000000000000 #
b1000000000000000000000000000000000000000000000000000000000000000000000000000000000000000000000000000000000000000000 &
b1110010 %
#135000
b10000000000 (
1!
b1110011 "
b1110011 '
b10000000000000000000000000000000000000000000000000000000000000000000000000000000000000000000000000000000000000000000 #
b10000000000000000000000000000000000000000000000000000000000000000000000000000000000000000000000000000000000000000000 &
b1110011 %
#136000
b10000000000 (
1!
b1110100 "
b1110100 '
b100000000000000000000000000000000000000000000000000000000000000000000000000000000000000000000000000000000000000000000 #
b100000000000000000000000000000000000000000000000000000000000000000000000000000000000000000000000000000000000000000000 &
b1110100 %
#137000
b10000000000 (
1!
b1110101 "
b1110101 '
b1000000000000000000000000000000000000000000000000000000000000000000000000000000000000000000000000000000000000000000000 #
b1000000000000000000000000000000000000000000000000000000000000000000000000000000000000000000000000000000000000000000000 &
b1110101 %
#138000
b10000000000 (
1!
b1110110 "
b1110110 '
b10000000000000000000000000000000000000000000000000000000000000000000000000000000000000000000000000000000000000000000000 #
b10000000000000000000000000000000000000000000000000000000000000000000000000000000000000000000000000000000000000000000000 &
b1110110 %
#139000
b10000000000 (
1!
b1110111 "
b1110111 '
b100000000000000000000000000000000000000000000000000000000000000000000000000000000000000000000000000000000000000000000000 #
b100000000000000000000000000000000000000000000000000000000000000000000000000000000000000000000000000000000000000000000000 &
b1110111 %
#140000
b10000000000 (
1!
b1111000 "
b1111000 '
b1000000000000000000000000000000000000000000000000000000000000000000000000000000000000000000000000000000000000000000000000 #
b1000000000000000000000000000000000000000000000000000000000000000000000000000000000000000000000000000000000000000000000000 &
b1111000 %
#141000
b10000000000 (
1!
b1111001 "
b1111001 '
b10000000000000000000000000000000000000000000000000000000000000000000000000000000000000000000000000000000000000000000000000 #
b10000000000000000000000000000000000000000000000000000000000000000000000000000000000000000000000000000000000000000000000000 &
b1111001 %
#142000
b10000000000 (
1!
b1111010 "
b1111010 '
b100000000000000000000000000000000000000000000000000000000000000000000000000000000000000000000000000000000000000000000000000 #
b100000000000000000000000000000000000000000000000000000000000000000000000000000000000000000000000000000000000000000000000000 &
b1111010 %
#143000
b10000000000 (
1!
b1111011 "
b1111011 '
b1000000000000000000000000000000000000000000000000000000000000000000000000000000000000000000000000000000000000000000000000000 #
b1000000000000000000000000000000000000000000000000000000000000000000000000000000000000000000000000000000000000000000000000000 &
b1111011 %
#144000
b10000000000 (
1!
b1111100 "
b1111100 '
b10000000000000000000000000000000000000000000000000000000000000000000000000000000000000000000000000000000000000000000000000000 #
b10000000000000000000000000000000000000000000000000000000000000000000000000000000000000000000000000000000000000000000000000000 &
b1111100 %
#145000
b10000000000 (
1!
b1111101 "
b1111101 '
b100000000000000000000000000000000000000000000000000000000000000000000000000000000000000000000000000000000000000000000000000000 #
b100000000000000000000000000000000000000000000000000000000000000000000000000000000000000000000000000000000000000000000000000000 &
b1111101 %
#146000
b10000000000 (
1!
b1111110 "
b1111110 '
b1000000000000000000000000000000000000000000000000000000000000000000000000000000000000000000000000000000000000000000000000000000 #
b1000000000000000000000000000000000000000000000000000000000000000000000000000000000000000000000000000000000000000000000000000000 &
b1111110 %
#147000
b10000000000 (
1!
b1111111 "
b1111111 '
b10000000000000000000000000000000000000000000000000000000000000000000000000000000000000000000000000000000000000000000000000000000 #
b10000000000000000000000000000000000000000000000000000000000000000000000000000000000000000000000000000000000000000000000000000000 &
b1111111 %
#148000
b10000000000 (
1!
b10000000 "
b10000000 '
b100000000000000000000000000000000000000000000000000000000000000000000000000000000000000000000000000000000000000000000000000000000 #
b100000000000000000000000000000000000000000000000000000000000000000000000000000000000000000000000000000000000000000000000000000000 &
b10000000 %
#149000
b10000000000 (
1!
b10000001 "
b10000001 '
b1000000000000000000000000000000000000000000000000000000000000000000000000000000000000000000000000000000000000000000000000000000000 #
b1000000000000000000000000000000000000000000000000000000000000000000000000000000000000000000000000000000000000000000000000000000000 &
b10000001 %
#150000
b10000000000 (
1!
b10000010 "
b10000010 '
b10000000000000000000000000000000000000000000000000000000000000000000000000000000000000000000000000000000000000000000000000000000000 #
b10000000000000000000000000000000000000000000000000000000000000000000000000000000000000000000000000000000000000000000000000000000000 &
b10000010 %
#151000
b10000000000 (
1!
b10000011 "
b10000011 '
b100000000000000000000000000000000000000000000000000000000000000000000000000000000000000000000000000000000000000000000000000000000000 #
b100000000000000000000000000000000000000000000000000000000000000000000000000000000000000000000000000000000000000000000000000000000000 &
b10000011 %
#152000
b10000000000 (
1!
b10000100 "
b10000100 '
b1000000000000000000000000000000000000000000000000000000000000000000000000000000000000000000000000000000000000000000000000000000000000 #
b1000000000000000000000000000000000000000000000000000000000000000000000000000000000000000000000000000000000000000000000000000000000000 &
b10000100 %
#153000
b10000000000 (
1!
b10000101 "
b10000101 '
b10000000000000000000000000000000000000000000000000000000000000000000000000000000000000000000000000000000000000000000000000000000000000 #
b10000000000000000000000000000000000000000000000000000000000000000000000000000000000000000000000000000000000000000000000000000000000000 &
b10000101 %
#154000
b10000000000 (
1!
b10000110 "
b10000110 '
b100000000000000000000000000000000000000000000000000000000000000000000000000000000000000000000000000000000000000000000000000000000000000 #
b100000000000000000000000000000000000000000000000000000000000000000000000000000000000000000000000000000000000000000000000000000000000000 &
b10000110 %
#155000
b10000000000 (
1!
b10000111 "
b10000111 '
b1000000000000000000000000000000000000000000000000000000000000000000000000000000000000000000000000000000000000000000000000000000000000000 #
b1000000000000000000000000000000000000000000000000000000000000000000000000000000000000000000000000000000000000000000000000000000000000000 &
b10000111 %
#156000
b10000000000 (
1!
b10001000 "
b10001000 '
b10000000000000000000000000000000000000000000000000000000000000000000000000000000000000000000000000000000000000000000000000000000000000000 #
b10000000000000000000000000000000000000000000000000000000000000000000000000000000000000000000000000000000000000000000000000000000000000000 &
b10001000 %
#157000
b10000000000 (
1!
b10001001 "
b10001001 '
b100000000000000000000000000000000000000000000000000000000000000000000000000000000000000000000000000000000000000000000000000000000000000000 #
b100000000000000000000000000000000000000000000000000000000000000000000000000000000000000000000000000000000000000000000000000000000000000000 &
b10001001 %
#158000
b10000000000 (
1!
b10001010 "
b10001010 '
b1000000000000000000000000000000000000000000000000000000000000000000000000000000000000000000000000000000000000000000000000000000000000000000 #
b1000000000000000000000000000000000000000000000000000000000000000000000000000000000000000000000000000000000000000000000000000000000000000000 &
b10001010 %
#159000
b10000000000 (
1!
b10001011 "
b10001011 '
b10000000000000000000000000000000000000000000000000000000000000000000000000000000000000000000000000000000000000000000000000000000000000000000 #
b10000000000000000000000000000000000000000000000000000000000000000000000000000000000000000000000000000000000000000000000000000000000000000000 &
b10001011 %
#160000
b10000000000 (
1!
b10001100 "
b10001100 '
b100000000000000000000000000000000000000000000000000000000000000000000000000000000000000000000000000000000000000000000000000000000000000000000 #
b100000000000000000000000000000000000000000000000000000000000000000000000000000000000000000000000000000000000000000000000000000000000000000000 &
b10001100 %
#161000
b10000000000 (
1!
b10001101 "
b10001101 '
b1000000000000000000000000000000000000000000000000000000000000000000000000000000000000000000000000000000000000000000000000000000000000000000000 #
b1000000000000000000000000000000000000000000000000000000000000000000000000000000000000000000000000000000000000000000000000000000000000000000000 &
b10001101 %
#162000
b10000000000 (
1!
b10001110 "
b10001110 '
b10000000000000000000000000000000000000000000000000000000000000000000000000000000000000000000000000000000000000000000000000000000000000000000000 #
b10000000000000000000000000000000000000000000000000000000000000000000000000000000000000000000000000000000000000000000000000000000000000000000000 &
b10001110 %
#163000
b10000000000 (
1!
b10001111 "
b10001111 '
b100000000000000000000000000000000000000000000000000000000000000000000000000000000000000000000000000000000000000000000000000000000000000000000000 #
b100000000000000000000000000000000000000000000000000000000000000000000000000000000000000000000000000000000000000000000000000000000000000000000000 &
b10001111 %
#164000
b10000000000 (
1!
b10010000 "
b10010000 '
b1000000000000000000000000000000000000000000000000000000000000000000000000000000000000000000000000000000000000000000000000000000000000000000000000 #
b1000000000000000000000000000000000000000000000000000000000000000000000000000000000000000000000000000000000000000000000000000000000000000000000000 &
b10010000 %
#165000
b10000000000 (
1!
b10010001 "
b10010001 '
b10000000000000000000000000000000000000000000000000000000000000000000000000000000000000000000000000000000000000000000000000000000000000000000000000 #
b10000000000000000000000000000000000000000000000000000000000000000000000000000000000000000000000000000000000000000000000000000000000000000000000000 &
b10010001 %
#166000
b10000000000 (
1!
b10010010 "
b10010010 '
b100000000000000000000000000000000000000000000000000000000000000000000000000000000000000000000000000000000000000000000000000000000000000000000000000 #
b100000000000000000000000000000000000000000000000000000000000000000000000000000000000000000000000000000000000000000000000000000000000000000000000000 &
b10010010 %
#167000
b10000000000 (
1!
b10010011 "
b10010011 '
b1000000000000000000000000000000000000000000000000000000000000000000000000000000000000000000000000000000000000000000000000000000000000000000000000000 #
b1000000000000000000000000000000000000000000000000000000000000000000000000000000000000000000000000000000000000000000000000000000000000000000000000000 &
b10010011 %
#168000
b10000000000 (
1!
b10010100 "
b10010100 '
b10000000000000000000000000000000000000000000000000000000000000000000000000000000000000000000000000000000000000000000000000000000000000000000000000000 #
b10000000000000000000000000000000000000000000000000000000000000000000000000000000000000000000000000000000000000000000000000000000000000000000000000000 &
b10010100 %
#169000
b10000000000 (
1!
b10010101 "
b10010101 '
b100000000000000000000000000000000000000000000000000000000000000000000000000000000000000000000000000000000000000000000000000000000000000000000000000000 #
b100000000000000000000000000000000000000000000000000000000000000000000000000000000000000000000000000000000000000000000000000000000000000000000000000000 &
b10010101 %
#170000
b10000000000 (
1!
b10010110 "
b10010110 '
b1000000000000000000000000000000000000000000000000000000000000000000000000000000000000000000000000000000000000000000000000000000000000000000000000000000 #
b1000000000000000000000000000000000000000000000000000000000000000000000000000000000000000000000000000000000000000000000000000000000000000000000000000000 &
b10010110 %
#171000
b10000000000 (
1!
b10010111 "
b10010111 '
b10000000000000000000000000000000000000000000000000000000000000000000000000000000000000000000000000000000000000000000000000000000000000000000000000000000 #
b10000000000000000000000000000000000000000000000000000000000000000000000000000000000000000000000000000000000000000000000000000000000000000000000000000000 &
b10010111 %
#172000
b10000000000 (
1!
b10011000 "
b10011000 '
b100000000000000000000000000000000000000000000000000000000000000000000000000000000000000000000000000000000000000000000000000000000000000000000000000000000 #
b100000000000000000000000000000000000000000000000000000000000000000000000000000000000000000000000000000000000000000000000000000000000000000000000000000000 &
b10011000 %
#173000
b10000000000 (
1!
b10011001 "
b10011001 '
b1000000000000000000000000000000000000000000000000000000000000000000000000000000000000000000000000000000000000000000000000000000000000000000000000000000000 #
b1000000000000000000000000000000000000000000000000000000000000000000000000000000000000000000000000000000000000000000000000000000000000000000000000000000000 &
b10011001 %
